{
	"label": "Alien RPG L'Art d'être Alien",
	"entries": [
		{
			"id": "577 APC",
			"name": "577 APC",
			"description": null
		},
		{
			"id": "Alien",
			"name": "Alien",
			"description": null
		},
		{
			"id": "Alien Nest",
			"name": "Alien Nest",
			"description": null
		},
		{
			"id": "Alien Ship",
			"name": "Alien Ship",
			"description": null
		},
		{
			"id": "Alien Ship Exterior",
			"name": "Alien Ship Exterior",
			"description": null
		},
		{
			"id": "Alien Species",
			"name": "Alien Species",
			"description": null
		},
		{
			"id": "Ambush",
			"name": "Ambush",
			"description": null
		},
		{
			"id": "Campaign Play",
			"name": "Campaign Play",
			"description": null
		},
		{
			"id": "Careers",
			"name": "Careers",
			"description": null
		},
		{
			"id": "City of 2183",
			"name": "City of 2183",
			"description": null
		},
		{
			"id": "Climb",
			"name": "Climb",
			"description": null
		},
		{
			"id": "CM-88H Bison",
			"name": "CM-88H Bison",
			"description": null
		},
		{
			"id": "CM-90S Corvus",
			"name": "CM-90S Corvus",
			"description": null
		},
		{
			"id": "Colonial Marshal",
			"name": "Colonial Marshal",
			"description": null
		},
		{
			"id": "Combat and Damage",
			"name": "Combat and Damage",
			"description": null
		},
		{
			"id": "Company Agent",
			"name": "Company Agent",
			"description": null
		},
		{
			"id": "Conestoga",
			"name": "Conestoga",
			"description": null
		},
		{
			"id": "Control Console",
			"name": "Control Console",
			"description": null
		},
		{
			"id": "Crashed Alien Ship",
			"name": "Crashed Alien Ship",
			"description": null
		},
		{
			"id": "Cryo \"Awakening\"",
			"name": "Cryo \"Awakening\"",
			"description": null
		},
		{
			"id": "Daihotai - All Terrain",
			"name": "Daihotai - All Terrain",
			"description": null
		},
		{
			"id": "DiagnosticsAndDisplay",
			"name": "DiagnosticsAndDisplay",
			"description": null
		},
		{
			"id": "Dog Catcher",
			"name": "Dog Catcher",
			"description": null
		},
		{
			"id": "Egg",
			"name": "Egg",
			"description": null
		},
		{
			"id": "Encounter - \"Game over man!\"",
			"name": "Encounter - \"Game over man!\"",
			"description": null
		},
		{
			"id": "Explosion",
			"name": "Explosion",
			"description": null
		},
		{
			"id": "Fiori",
			"name": "Fiori",
			"description": null
		},
		{
			"id": "Food and Drink",
			"name": "Food and Drink",
			"description": null
		},
		{
			"id": "Frontiers",
			"name": "Frontiers",
			"description": null
		},
		{
			"id": "Frozen Waste Outpost",
			"name": "Frozen Waste Outpost",
			"description": null
		},
		{
			"id": "Gear",
			"name": "Gear",
			"description": null
		},
		{
			"id": "Gear Tracker",
			"name": "Gear Tracker",
			"description": null
		},
		{
			"id": "Goverment and Corporations",
			"name": "Goverment and Corporations",
			"description": null
		},
		{
			"id": "Hard Life in Space Ship",
			"name": "Hard Life in Space Ship",
			"description": null
		},
		{
			"id": "Harvester",
			"name": "Harvester",
			"description": null
		},
		{
			"id": "Head Discovery",
			"name": "Head Discovery",
			"description": null
		},
		{
			"id": "Investigation",
			"name": "Investigation",
			"description": null
		},
		{
			"id": "Jump",
			"name": "Jump",
			"description": null
		},
		{
			"id": "Kid",
			"name": "Kid",
			"description": null
		},
		{
			"id": "Loader",
			"name": "Loader",
			"description": null
		},
		{
			"id": "Marine",
			"name": "Marine",
			"description": null
		},
		{
			"id": "Marine on Patrol",
			"name": "Marine on Patrol",
			"description": null
		},
		{
			"id": "Medic!",
			"name": "Medic!",
			"description": null
		},
		{
			"id": "Melee",
			"name": "Melee",
			"description": null
		},
		{
			"id": "Neomorph",
			"name": "Neomorph",
			"description": null
		},
		{
			"id": "Novogorod Station",
			"name": "Novogorod Station",
			"description": null
		},
		{
			"id": "Officer",
			"name": "Officer",
			"description": null
		},
		{
			"id": "Outpost",
			"name": "Outpost",
			"description": null
		},
		{
			"id": "Pilot",
			"name": "Pilot",
			"description": null
		},
		{
			"id": "Planets",
			"name": "Planets",
			"description": null
		},
		{
			"id": "Planetside",
			"name": "Planetside",
			"description": null
		},
		{
			"id": "Plastic Android",
			"name": "Plastic Android",
			"description": null
		},
		{
			"id": "Roughneck",
			"name": "Roughneck",
			"description": null
		},
		{
			"id": "Scientist",
			"name": "Scientist",
			"description": null
		},
		{
			"id": "Scientist at work",
			"name": "Scientist at work",
			"description": null
		},
		{
			"id": "Ship Corridor",
			"name": "Ship Corridor",
			"description": null
		},
		{
			"id": "Ship Explosion",
			"name": "Ship Explosion",
			"description": null
		},
		{
			"id": "Ship in Orbit",
			"name": "Ship in Orbit",
			"description": null
		},
		{
			"id": "Skills",
			"name": "Skills",
			"description": null
		},
		{
			"id": "Space Jockey",
			"name": "Space Jockey",
			"description": null
		},
		{
			"id": "Space Walk",
			"name": "Space Walk",
			"description": null
		},
		{
			"id": "Spacestation",
			"name": "Spacestation",
			"description": null
		},
		{
			"id": "Spacestation in Orbit",
			"name": "Spacestation in Orbit",
			"description": null
		},
		{
			"id": "Spacestation over Planet",
			"name": "Spacestation over Planet",
			"description": null
		},
		{
			"id": "Speeding APC",
			"name": "Speeding APC",
			"description": null
		},
		{
			"id": "Stealth",
			"name": "Stealth",
			"description": null
		},
		{
			"id": "Systems and Planets",
			"name": "Systems and Planets",
			"description": null
		},
		{
			"id": "UD4 Cheyenne",
			"name": "UD4 Cheyenne",
			"description": null
		},
		{
			"id": "UPP Patrol",
			"name": "UPP Patrol",
			"description": null
		},
		{
			"id": "Wreck",
			"name": "Wreck",
			"description": null
		},
		{
			"id": "Xenomorph",
			"name": "Xenomorph",
			"description": null
		},
		{
			"id": "Xenomorph Head",
			"name": "Xenomorph Head",
			"description": null
		}
	]
}